{
  "header-navigation": [
    {
      "title": "Новости",
      "href": "#"
    },
    {
      "title": "Персоны",
      "href": "#"
    },
    {
      "title": "Звезды",
      "href": "#"
    },
    {
      "title": "Мода",
      "href": "#"
    },
    {
      "title": "Красота",
      "href": "#"
    },
    {
      "title": "Кино, тв и сериалы",
      "href": "#"
    },
    {
      "title": "Музыка",
      "href": "#"
    },
    {
      "title": "ru",
      "href": "#"
    },
    {
      "title": "HOT",
      "href": "#"
    }
  ],

  "slider": [
    {
      "title": "1. Дженнифер Лопес сняла 10-летнюю дочь в своем новом клипе 👰",
      "image": "article-image1.jpg",
      "comments": {
        "count": "23к"
      }
    },
    {
      "title": "2. Дженнифер Лопес сняла 10-летнюю дочь в своем новом клипе 👰",
      "image": "article-image1.jpg",
      "comments": {
        "count": "23к"
      }
    },
    {
      "title": "3. Дженнифер Лопес сняла 10-летнюю дочь в своем новом клипе 👰",
      "image": "article-image1.jpg",
      "comments": {
        "count": "23к"
      }
    },
    {
      "title": "4. Дженнифер Лопес сняла 10-летнюю дочь в своем новом клипе 👰",
      "image": "article-image1.jpg",
      "comments": {
        "count": "23к"
      }
    }
  ],

  "top-discussing": [
    {
      "title": "Итоги 2018 по версии ПОПКОРНNews: самый сексуальный мужчина года"
    },
    {
      "title": "Фото: беременная Меган Маркл вручила награды на церемонии Fashion Awards 2018"
    },
    {
      "title": "Харви Вайнштейн заявил, что Дженнифер Лоуренс получила «Оскар» за секс с ним"
    }
  ],
  "hot-articles": [
    {
      "title": "Звезды «Друзей» зарабатывают на сериале по 20 млн долларов в год спустя 14 лет после его окончания",
      "category": "Мода"
    },
    {
      "title": "Наоми Кэмпбелл и Дэвид Бекхэм вошли в список самых невоспитанных звезд 2018",
      "category": "Звезды кино"
    },
    {
      "title": "Семейство Кардашьян потратило на рождественскую вечеринку полмиллиона долларов",
      "category": "Сериалы"
    }
  ],
  "new-comments": [
      {
        "title": "Шайа ЛаБаф и FKA Twigs отпраздновали первое совместное Рождество",
        "comments": {
          "count": "23к"
        },
        "avatar": "avatar1.jpg"

      },
      {
        "title": "Роберт Паттинсон в рекламной кампании Dior весна-2019",
        "comments": {
          "count": 982
        },
        "avatar": "avatar2.jpg"

      },
      {
        "title": "Звезды «Друзей» зарабатывают на сериале по 20 млн долларов в год спустя 14 лет после его окончания",
        "comments": {
          "count": 982
        },
        "avatar": "avatar3.jpg"

      },
      {
        "title": "Киану Ривз изъявил желание сыграть Росомаху – и вот как это выглядит",
        "comments": {
          "count": 3
        },
        "avatar": ""

      }
  ],
  "important-tags": [
    {
      "title": "Нижнее белье"
    },
    {
      "title": "Оскар"
    },
    {
      "title": "Итоги года"
    },
    {
      "title": "Реклама"
    },
    {
      "title": "Новый год"
    }
  ],
  "similar-tags": [
    {
      "title": " Ким Кардашьян",
      "image": "tag1.jpg"
    },
    {
      "title": "Рианна",
      "image": "tag1.jpg"
    },
    {
      "title": "Дети"
    },
    {
      "title": "Нижнее белье"
    }
  ],
  "similar-news": {
    "title": "Наконец-то: 3 сезон «Очень странных дел» получил официальную дату премьеры",
    "category": "Хот",
    "image": "image.jpg",
    "counter": 2,
    "news": [
      {
        "title": "Итоги 2018 по версии ПОПКОРНNews: самый сексуальный мужчина года"
      },
      {
        "title": "Фото: беременная Меган Маркл вручила награды на церемонии Fashion Awards 2018"
      },
      {
        "title": "Харви Вайнштейн заявил, что Дженнифер Лоуренс получила «Оскар» за секс с ним"
      },
      {
        "title": "Мизинец выжил, а Бран Старк стал Королем Ночи: топ 5 фанатских теорий о финале «Игры престолов»"
      }
    ]
  },
  "article": {
    "tags": [
      {
        "title": "Рекламная кампания"
      },
      {
        "title": "Нижнее белье"
      }
    ],
    "date": "19 янв 2018 13:20",
    "title": "Семейство Кардашьян потратило на рождественскую вечеринку полмиллиона долларов",
    "comments": {
      "count": 24
    }
  },
  "articles": {
    "with-comments-preview": {
      "is-favorite": true,
      "tags": [
        {
          "title": "Рекламная кампания"
        },
        {
          "title": "Нижнее белье"
        }
      ],
      "date": "19 янв 2018 13:20",
      "title": "«Реинкарнация» возглавила рейтинг самых лучших фильмов ужасов 2018 года",
      "image": "article-image2.jpg",
      "text": "Этот год для любителей хорроров выдался насыщенным на неожиданные и ожидаемые премьеры. Издание Screen Rant составило список лучших фильмов ужасов, среди которых оказались кассовые рекордсмены и любимчики критиков.",
      "comments": {
        "count": 24
      },
      "comments-preview": [
        {
          "avatar": "avatar1.jpg",
          "text": "Господи, на ее то жопу??? 😱🤦‍️🙅‍️"
        }
      ]
    },
    "with-accent": {
      "is-accent": true,
      "tags": [
        {
          "title": "Итоги года",
          "is-accent": true
        },
        {
          "title": "Рекламная кампания"
        },
        {
          "title": "Нижнее белье"
        }
      ],
      "date": "19 янв 2018 13:20",
      "title": "Фото: Рианна в рекламной кампании коллекции нижнего белья Savage x Fenty",
      "image": "article-image4.jpg",
      "text": "Рианна знает, как разжечь интерес: певица без стеснения выступает в откровенных нарядах, блистает на красных ковровых дорожках и притягивает внимание в новой рекламной кампании нижнего белья",
      "comments": {
        "count": "100к",
        "is-accent": true
      }
    },
    "simple": {
      "tags": [
        {
          "title": "Рекламная кампания"
        },
        {
          "title": "Нижнее белье"
        }
      ],
      "date": "19 янв 2018 13:20",
      "title": "Майли Сайрус и Лиам Хемсворт опровергли слухи о проблемах в отношениях совместным выходом в свет",
      "image": "article-image5.jpg",
      "text": "Этот год для любителей хорроров выдался насыщенным на неожиданные и ожидаемые премьеры. Издание Screen Rant составило список лучших фильмов ужасов, среди которых оказались кассовые рекордсмены и любимчики критиков."
    },
    "photo": {
      "category": "Хот",
      "title": "Хакеры слили в сеть «голые» фото Кендалл Дженнер",
      "image": "article-image3.jpg",
      "comments": {
        "count": 24
      }
    }
  },
  "persons": {
    "with-photo": [
      {
        "name": "Роберт Паттинсон",
        "original-name": "Robert Pattinson",
        "image": "image1.jpg",
        "href": "#",
        "is-favorite": true
      },
      {
        "name": "Йен Сомерхолдер",
        "original-name": "Ian Somerhalder",
        "image": "image2.jpg",
        "href": "#",
        "is-favorite": false
      },
      {
        "name": "Кристен Стюарт",
        "original-name": "Kristen Stewart",
        "image": "image3.jpg",
        "href": "#",
        "is-favorite": true
      },
      {
        "name": "Анджелина Джоли",
        "original-name": "Robert Pattinson",
        "image": "image4.jpg",
        "href": "#",
        "is-favorite": false
      },
      {
        "name": "Джонни Депп",
        "original-name": "Robert Pattinson",
        "image": "image5.jpg",
        "href": "#",
        "is-favorite": false
      }
    ],
    "alphabet": [
      {
        "letter": "А",
        "list": [
          {
            "name": "Адам Ламберт",
            "original-name": "Adam Lambert",
            "href": "#"
          },
          {
            "name": "Адам Левин",
            "original-name": "Adam Levine",
            "href": "#"
          },
          {
            "name": "Адам Сэндлер",
            "original-name": "Adam Sandler",
            "href": "#"
          },
          {
            "name": "Адель",
            "original-name": "Adele",
            "href": "#"
          }
        ]
      },
      {
        "letter": "Б",
        "list": [
          {
            "name": "Адам Ламберт",
            "original-name": "Adam Lambert",
            "href": "#"
          },
          {
            "name": "Адам Левин",
            "original-name": "Adam Levine",
            "href": "#"
          },
          {
            "name": "Адам Сэндлер",
            "original-name": "Adam Sandler",
            "href": "#"
          },
          {
            "name": "Адель",
            "original-name": "Adele",
            "href": "#"
          }
        ]
      }
    ]
  },
  "profile": {
    "avatar": "avatar1.jpg",
    "name": "Robin",
    "rating": "32 478",
    "timestamp": "4 января 2019, 15:25",
    "tabs-model": [{
      "is-active": true,
      "text": "Пишет"
    }, {
      "is-active": false,
      "text": "Персоны"
    }]
  },
  "comments": [
    {
      "avatar": "avatar2.jpg",
      "name": "intvinvented",
      "user-rating": 4078,
      "title": "Новость «Мизинец выжил, а Бран Старк стал Королем Ночи: топ 5 фанатских теорий о финале «Игры престолов»",
      "reply": "",
      "text": "Красотка. Фотосет определенно радует глаз. Раньше она выглядела старше своего возраста, а сейчас так похорошела после оттенков.",
      "timestamp": "28 декабря 2018, 15:44",
      "comment-rating": 32343
    },
    {
      "avatar": "avatar3.jpg",
      "name": "intvinvented",
      "user-rating": 1234,
      "title": "Новость «Мизинец выжил, а Бран Старк стал Королем Ночи: топ 5 фанатских теорий о финале «Игры престолов»",
      "reply": "в ответ на сообщение Viktor Kalinyuk от 18 марта 2018 22:06",
      "text": "ну тыже знаешь, кинокритики люди странные. часто восторгаются тем, чего простые зрители вообще не оценили и наоборот. я считаю, что Арми сыграл отлично. но тоже соглашусь с тем, что восторги были лишними. но они были. в рецензиях к Зови... критики вспоминали про Винклвоссов, вчера читала рецензию к новому фильму Арми Sorry to Bother You, опять вспомнили про Винклвоссов. и Тимоти в интервью восторгался тем, что Арми был Социальной сети, он был там просто оссум! и т.д. и т.п. я к социальной сети не читала рецензии, но много раз читала в статьях про Арми: Голливуд заметил и нашел его в Социальной сети Дэвида Финчера, он обратил на себя внимание впервые в Социальной сети. о нем заговорили, как о новом молодом актере Голливуда после Социальной сети. но критики в Социальной сети хвалили весь актерский состав за превосходную игру.",
      "timestamp": "28 декабря 2018, 15:44",
      "comment-rating": 12
    },
    {
      "avatar": "avatar1.jpg",
      "name": "intvinvented",
      "user-rating": 1234,
      "title": "Новость «Мизинец выжил, а Бран Старк стал Королем Ночи: топ 5 фанатских теорий о финале «Игры престолов»",
      "reply": "в ответ на сообщение Viktor Kalinyuk от 18 марта 2018 22:06",
      "text": "ну тыже знаешь, кинокритики люди странные. часто восторгаются тем, чего простые зрители вообще не оценили и наоборот. я считаю, что Арми сыграл отлично. но тоже соглашусь с тем, что восторги были лишними. но они были. в рецензиях к Зови... критики вспоминали про Винклвоссов, вчера читала рецензию к новому фильму Арми Sorry to Bother You, опять вспомнили про Винклвоссов. и Тимоти в интервью восторгался тем, что Арми был Социальной сети, он был там просто оссум! и т.д. и т.п. я к социальной сети не читала рецензии, но много раз читала в статьях про Арми: Голливуд заметил и нашел его в Социальной сети Дэвида Финчера, он обратил на себя внимание впервые в Социальной сети. о нем заговорили, как о новом молодом актере Голливуда после Социальной сети. но критики в Социальной сети хвалили весь актерский состав за превосходную игру.",
      "timestamp": "28 декабря 2018, 15:44",
      "comment-rating": -12
    }
  ],
  "comments-pin": [
    {
      "text": "Начало темы: http://www.popcornnews.ru/news/u_zovi_menya_svoim_imenem_mozhet_poyavit_sya_sikvel / Начало всех начал: https://www.popcornnews.ru/news/itogi_2017_po_versii_popkornnews_samij_seksual_nij_muzhchina_goda / СКЛАД: http://www.popcornnews.ru/persons/Armie-Hammer/talks/topic/10076 / Литературная: http://www.popcornnews.ru/persons/Armie-Hammer/talks/topic/10086 / Как вставлять картинки в теме: https://www.popcornnews.ru/persons/Armie-Hammer/talks/topic/10099",
      "cssMod": "__accent",
      "comment-rating": null
    },
    {
      "avatar": "avatar3.jpg",
      "name": "intvinvented",
      "user-rating": 1234,
      "title": "Новость «Мизинец выжил, а Бран Старк стал Королем Ночи: топ 5 фанатских теорий о финале «Игры престолов»",
      "reply": "в ответ на сообщение Viktor Kalinyuk от 18 марта 2018 22:06",
      "text": "ну тыже знаешь, кинокритики люди странные. часто восторгаются тем, чего простые зрители вообще не оценили и наоборот. я считаю, что Арми сыграл отлично. но тоже соглашусь с тем, что восторги были лишними. но они были. в рецензиях к Зови... критики вспоминали про Винклвоссов, вчера читала рецензию к новому фильму Арми Sorry to Bother You, опять вспомнили про Винклвоссов. и Тимоти в интервью восторгался тем, что Арми был Социальной сети, он был там просто оссум! и т.д. и т.п. я к социальной сети не читала рецензии, но много раз читала в статьях про Арми: Голливуд заметил и нашел его в Социальной сети Дэвида Финчера, он обратил на себя внимание впервые в Социальной сети. о нем заговорили, как о новом молодом актере Голливуда после Социальной сети. но критики в Социальной сети хвалили весь актерский состав за превосходную игру.",
      "timestamp": "28 декабря 2018, 15:44",
      "comment-rating": 12
    },
    {
      "avatar": "avatar1.jpg",
      "name": "intvinvented",
      "user-rating": 1234,
      "title": "Новость «Мизинец выжил, а Бран Старк стал Королем Ночи: топ 5 фанатских теорий о финале «Игры престолов»",
      "reply": "в ответ на сообщение Viktor Kalinyuk от 18 марта 2018 22:06",
      "text": "ну тыже знаешь, кинокритики люди странные. часто восторгаются тем, чего простые зрители вообще не оценили и наоборот. я считаю, что Арми сыграл отлично. но тоже соглашусь с тем, что восторги были лишними. но они были. в рецензиях к Зови... критики вспоминали про Винклвоссов, вчера читала рецензию к новому фильму Арми Sorry to Bother You, опять вспомнили про Винклвоссов. и Тимоти в интервью восторгался тем, что Арми был Социальной сети, он был там просто оссум! и т.д. и т.п. я к социальной сети не читала рецензии, но много раз читала в статьях про Арми: Голливуд заметил и нашел его в Социальной сети Дэвида Финчера, он обратил на себя внимание впервые в Социальной сети. о нем заговорили, как о новом молодом актере Голливуда после Социальной сети. но критики в Социальной сети хвалили весь актерский состав за превосходную игру.",
      "timestamp": "28 декабря 2018, 15:44",
      "comment-rating": -12
    }
  ],
  "person-card": {
    "with-text": {
      "image": "image1.jpg",
      "name": "Ким Кардашиан",
      "is-favorite": false,
      "tabs-model": [{
        "is-active": true,
        "text": "Новости"
      }, {
        "is-active": false,
        "text": "Обсуждения"
      }],
      "text": "Ким Кардашиан (Кимберли Кардашиан Хамфрис) – американская светская львица, тусовщица, фотомодель и актриса, а также участница американской версии шоу «Танцы со звездами»"
    },
    "without-text": {
      "image": "image2.jpg",
      "name": "Арми Хаммер",
      "is-favorite": true,
      "tabs-model": [{
        "is-active": false,
        "text": "Новости"
      }, {
        "is-active": true,
        "text": "Обсуждения"
      }]
    }
  },
  "person-talks": [
    {
      "title": "KNOW HOW для вновьпоступивших шармиголиков палаты #69 от CMBYN",
      "href": "#",
      "comments": {
        "count": 3
      },
      "timestamp": "19 янв 2018 13:20"
    },
    {
      "title": "Литературная палата #69 от CMBYN",
      "href": "#",
      "comments": {
        "count": 3
      },
      "timestamp": "19 янв 2018 13:20"
    },
    {
      "title": "СКЛАД палаты #69 '#вернитетиммиарми')))",
      "href": "#",
      "comments": {
        "count": "90k"
      },
      "timestamp": "19 янв 2018 13:20"
    },
    {
      "title": "Зови меня своим именем / Call Me by Your Name / Палата #69",
      "href": "#",
      "comments": {
        "count": 3
      },
      "timestamp": "19 янв 2018 13:20"
    }
  ],
  "chats": {
    "layout": "_messages-layout",

    "contacts": [{
      "href": "#",
      "avatar": "avatar1.jpg",
      "name": "intvinvented",
      "timestamp": "28 декабря 2018, 15:44",
      "is-active": true
    },
    {
      "href": "#",
      "avatar": "avatar2.jpg",
      "name": "Tinker bell",
      "timestamp": "28 декабря 2018, 15:44"
    },
    {
      "href": "#",
      "avatar": "avatar3.jpg",
      "name": "Ванильная_Зефирка",
      "timestamp": "28 декабря 2018, 15:44"
    },
    {
      "href": "#",
      "avatar": "avatar1.jpg",
      "name": "Ванильная_Зефирка",
      "timestamp": "28 декабря 2018, 15:44"
    },
      {
        "href": "#",
        "avatar": "avatar1.jpg",
        "name": "intvinvented",
        "timestamp": "28 декабря 2018, 15:44"
      },
      {
        "href": "#",
        "avatar": "avatar2.jpg",
        "name": "Tinker bell",
        "timestamp": "28 декабря 2018, 15:44"
      },
      {
        "href": "#",
        "avatar": "avatar3.jpg",
        "name": "Ванильная_Зефирка",
        "timestamp": "28 декабря 2018, 15:44"
      },
      {
        "href": "#",
        "avatar": "avatar1.jpg",
        "name": "Ванильная_Зефирка",
        "timestamp": "28 декабря 2018, 15:44"
      },
      {
        "href": "#",
        "avatar": "avatar1.jpg",
        "name": "intvinvented",
        "timestamp": "28 декабря 2018, 15:44"
      },
      {
        "href": "#",
        "avatar": "avatar2.jpg",
        "name": "Tinker bell",
        "timestamp": "28 декабря 2018, 15:44"
      },
      {
        "href": "#",
        "avatar": "avatar3.jpg",
        "name": "Ванильная_Зефирка",
        "timestamp": "28 декабря 2018, 15:44"
      },
      {
        "href": "#",
        "avatar": "avatar1.jpg",
        "name": "Ванильная_Зефирка",
        "timestamp": "28 декабря 2018, 15:44"
      },
      {
        "href": "#",
        "avatar": "avatar1.jpg",
        "name": "intvinvented",
        "timestamp": "28 декабря 2018, 15:44"
      },
      {
        "href": "#",
        "avatar": "avatar2.jpg",
        "name": "Tinker bell",
        "timestamp": "28 декабря 2018, 15:44"
      },
      {
        "href": "#",
        "avatar": "avatar3.jpg",
        "name": "Ванильная_Зефирка",
        "timestamp": "28 декабря 2018, 15:44"
      },
      {
        "href": "#",
        "avatar": "avatar1.jpg",
        "name": "Ванильная_Зефирка",
        "timestamp": "28 декабря 2018, 15:44"
      }
    ],
    "messages": {
      "owner": {
        "name": "Tinker bell",
        "avatar": "avatar2.jpg"
      },
      "list": [
        {
          "href": "#",
          "avatar": "avatar3.jpg",
          "name": "Ванильная_Зефирка",
          "message": [
            {
              "timestamp": "15:44",
              "text": "Красотка. Фотосет определенно радует глаз. Раньше она выглядела старше своего возраста, а сейчас так похорошела после оттенков.",
              "can-delete": true
            }
          ]
        },
        {
          "href": "#",
          "avatar": "avatar2.jpg",
          "name": "intvinvented",
          "message": [
            {
              "timestamp": "15:44",
              "text": "Красотка. Фотосет определенно радует глаз. Раньше она выглядела старше своего возраста, а сейчас так похорошела после оттенков."
            },
            {
              "timestamp": "15:44",
              "text": "Красотка. Фотосет определенно радует глаз. Раньше она выглядела старше своего возраста, а сейчас так похорошела после оттенков."
            }
          ]
        },
        {
          "href": "#",
          "avatar": "avatar1.jpg",
          "name": "Tinker bell",
          "message": [
            {
              "timestamp": "15:44",
              "text": "Красотка. Фотосет определенно радует глаз. Раньше она выглядела старше своего возраста, а сейчас так похорошела после оттенков.",
              "can-delete": true
            }
          ]
        },
        {
          "href": "#",
          "avatar": "avatar3.jpg",
          "name": "Ванильная_Зефирка",
          "message": [
            {
              "timestamp": "15:44",
              "text": "Красотка. Фотосет определенно радует глаз. Раньше она выглядела старше своего возраста, а сейчас так похорошела после оттенков."
            }
          ]
        },
        {
          "href": "#",
          "avatar": "avatar2.jpg",
          "name": "intvinvented",
          "message": [
            {
              "timestamp": "15:44",
              "text": "Красотка. Фотосет определенно радует глаз. Раньше она выглядела старше своего возраста, а сейчас так похорошела после оттенков."
            },
            {
              "timestamp": "15:44",
              "text": "Красотка. Фотосет определенно радует глаз. Раньше она выглядела старше своего возраста, а сейчас так похорошела после оттенков."
            }
          ]
        },
        {
          "href": "#",
          "avatar": "avatar1.jpg",
          "name": "Tinker bell",
          "message": [
            {
              "timestamp": "15:44",
              "text": "Красотка. Фотосет определенно радует глаз. Раньше она выглядела старше своего возраста, а сейчас так похорошела после оттенков."
            }
          ]
        },
        {
          "href": "#",
          "avatar": "avatar3.jpg",
          "name": "Ванильная_Зефирка",
          "message": [
            {
              "timestamp": "15:44",
              "text": "Красотка. Фотосет определенно радует глаз. Раньше она выглядела старше своего возраста, а сейчас так похорошела после оттенков."
            }
          ]
        },
        {
          "href": "#",
          "avatar": "avatar2.jpg",
          "name": "intvinvented",
          "message": [
            {
              "timestamp": "15:44",
              "text": "Красотка. Фотосет определенно радует глаз. Раньше она выглядела старше своего возраста, а сейчас так похорошела после оттенков."
            },
            {
              "timestamp": "15:44",
              "text": "Красотка. Фотосет определенно радует глаз. Раньше она выглядела старше своего возраста, а сейчас так похорошела после оттенков."
            }
          ]
        },
        {
          "href": "#",
          "avatar": "avatar1.jpg",
          "name": "Tinker bell",
          "message": [
            {
              "timestamp": "15:44",
              "text": "Красотка. Фотосет определенно радует глаз. Раньше она выглядела старше своего возраста, а сейчас так похорошела после оттенков."
            }
          ]
        }
      ]
    },
    "posting": "Вот это сет! Офигительно! Очень понравился портрет"
  },

  "login": {
    "title": "Вход",
    "layout": "_layer-layout"
  },

  "registration": {
    "title": "Регистрация",
    "layout": "_layer-layout"
  },

  "popup": {
    "title": "Спасибо!",
    "layout": "_layer-layout"
  },

  "404": {
    "layout": "_empty-layout"
  }
}